{
  "project_info": {
    "project_number": "575618429470",
    "firebase_url": "https://asdbhu2yz-39c5e.firebaseio.com",
    "project_id": "asdbhu2yz-39c5e",
    "storage_bucket": "asdbhu2yz-39c5e.appspot.com"
  },
  "client": [
    {
      "client_info": {
        "mobilesdk_app_id": "1:575618429470:android:442a6d65f1b0b050",
        "android_client_info": {
          "package_name": "com.android.teamnovelvn.sakuranovel"
        }
      },
      "oauth_client": [
        {
          "client_id": "575618429470-8qkv6cpoak7jokcmuv7srtko0v7gba8k.apps.googleusercontent.com",
          "client_type": 3
        }
      ],
      "api_key": [
        {
          "current_key": "AIzaSyCS1v9R_Z9_0IbPV7VJITvkVFxXWkKE-mk"
        }
      ],
      "services": {
        "analytics_service": {
          "status": 1
        },
        "appinvite_service": {
          "status": 1,
          "other_platform_oauth_client": []
        },
        "ads_service": {
          "status": 2
        }
      }
    }
  ],
  "configuration_version": "1"
}